EESchema Schematic File Version 2
LIBS:kicad-spice
LIBS:kicad-spice-cache
EELAYER 25 0
EELAYER END
$Descr A4 11693 8268
encoding utf-8
Sheet 1 1
Title ""
Date ""
Rev ""
Comp ""
Comment1 ""
Comment2 ""
Comment3 ""
Comment4 ""
$EndDescr
$Comp
L R R?
U 1 1 550C0769
P 3100 2400
F 0 "R?" H 3100 2500 60  0000 C CNN
F 1 "R" H 3100 2300 60  0000 C CNN
F 2 "" H 3100 2400 60  0000 C CNN
F 3 "" H 3100 2400 60  0000 C CNN
	1    3100 2400
	1    0    0    -1  
$EndComp
$Comp
L D D?
U 1 1 550C0DA2
P 4600 2400
F 0 "D?" H 4600 2525 60  0000 C CNN
F 1 "D" H 4600 2275 60  0000 C CNN
F 2 "" H 4600 2400 60  0000 C CNN
F 3 "" H 4600 2400 60  0000 C CNN
	1    4600 2400
	1    0    0    -1  
$EndComp
$Comp
L C C?
U 1 1 550C0E38
P 3100 3100
F 0 "C?" H 3100 3225 60  0000 C CNN
F 1 "C" H 3100 2975 60  0000 C CNN
F 2 "" H 2450 3650 60  0000 C CNN
F 3 "" H 2450 3650 60  0000 C CNN
	1    3100 3100
	1    0    0    -1  
$EndComp
$Comp
L DB X?
U 1 1 550C0FC0
P 5100 2400
F 0 "X?" H 5100 2525 60  0000 C CNN
F 1 "DB" H 5100 2275 60  0000 C CNN
F 2 "" H 5100 2400 60  0000 C CNN
F 3 "" H 5100 2400 60  0000 C CNN
	1    5100 2400
	1    0    0    -1  
$EndComp
$Comp
L QNPN Q?
U 1 1 550C122C
P 5200 3900
F 0 "Q?" H 5100 4100 60  0000 C CNN
F 1 "QNPN" V 5450 3900 60  0000 C CNN
F 2 "" H 4875 3900 60  0000 C CNN
F 3 "" H 4875 3900 60  0000 C CNN
	1    5200 3900
	1    0    0    -1  
$EndComp
$Comp
L QPNP Q?
U 1 1 550C1265
P 4600 3900
F 0 "Q?" H 4500 4100 60  0000 C CNN
F 1 "QPNP" V 4850 3900 60  0000 C CNN
F 2 "" H 4275 3900 60  0000 C CNN
F 3 "" H 4275 3900 60  0000 C CNN
	1    4600 3900
	1    0    0    -1  
$EndComp
$Comp
L V V?
U 1 1 550C1437
P 7550 2600
F 0 "V?" H 7425 2800 60  0000 C CNN
F 1 "V" V 7775 2600 60  0000 C CNN
F 2 "" H 7225 2600 60  0000 C CNN
F 3 "" H 7225 2600 60  0000 C CNN
	1    7550 2600
	1    0    0    -1  
$EndComp
$Comp
L I I?
U 1 1 550C147E
P 8500 2600
F 0 "I?" H 8375 2800 60  0000 C CNN
F 1 "I" V 8725 2600 60  0000 C CNN
F 2 "" H 8175 2600 60  0000 C CNN
F 3 "" H 8175 2600 60  0000 C CNN
	1    8500 2600
	1    0    0    -1  
$EndComp
$Comp
L L L?
U 1 1 550C1B72
P 3100 3800
F 0 "L?" H 3100 3900 60  0000 C CNN
F 1 "L" H 3100 3750 60  0000 C CNN
F 2 "" H 3100 3800 60  0000 C CNN
F 3 "" H 3100 3800 60  0000 C CNN
	1    3100 3800
	1    0    0    -1  
$EndComp
Wire Notes Line
	2500 1700 9500 1700
Wire Notes Line
	9500 1700 9500 5900
Wire Notes Line
	9500 5900 2500 5900
Wire Notes Line
	2500 5900 2500 1700
Text Notes 2700 2000 0    60   ~ 0
PASSIVE ELEMENTS
Text Notes 2900 2750 0    60   ~ 0
RESISTOR
Text Notes 2900 3450 0    60   ~ 0
CAPACITOR
Text Notes 2900 4100 0    60   ~ 0
INDUCTOR
Text Notes 6300 3000 0    60   ~ 0
TRANSFORMER
Text Notes 4500 2000 0    60   ~ 0
ACTIVE ELEMENTS
Text Notes 7600 2000 0    60   ~ 0
SUPPLY SOURCES
Text Notes 7150 3000 0    60   ~ 0
VOLTAGE SOURCE
Text Notes 8100 3000 0    60   ~ 0
CURRENT SOURCE
Text Notes 4500 2750 0    60   ~ 0
DIODE
Text Notes 4900 2750 0    60   ~ 0
DINISTOR
Text Notes 4500 4250 0    60   ~ 0
PNP
Text Notes 5100 4250 0    60   ~ 0
NPN
Text Notes 4450 3600 0    60   ~ 0
BIPOLAR JUNCTION
Text Notes 4550 3200 0    60   ~ 0
TRANSISTORS
$Comp
L T X?
U 1 1 550C494E
P 6600 2650
F 0 "X?" H 6600 2900 60  0000 C CNN
F 1 "T" H 6600 2500 60  0000 C CNN
F 2 "" V 6500 2700 60  0000 C CNN
F 3 "" V 6500 2700 60  0000 C CNN
	1    6600 2650
	1    0    0    -1  
$EndComp
Text Notes 7350 3550 0    60   ~ 0
GROUND
$Comp
L 0 #GND?
U 1 1 550C7304
P 7550 3350
F 0 "#GND?" H 7550 3250 40  0001 C CNN
F 1 "0" H 7550 3280 40  0000 C CNN
F 2 "" H 7550 3350 60  0000 C CNN
F 3 "" H 7550 3350 60  0000 C CNN
	1    7550 3350
	1    0    0    -1  
$EndComp
$Comp
L XX XX?
U 1 1 5527E0FD
P 3100 4500
F 0 "XX?" H 3100 4625 60  0000 C CNN
F 1 "XX" H 3100 4375 60  0000 C CNN
F 2 "" H 2450 5050 60  0000 C CNN
F 3 "" H 2450 5050 60  0000 C CNN
	1    3100 4500
	1    0    0    -1  
$EndComp
Text Notes 2900 4850 0    60   ~ 0
CRYSTALL
$Comp
L XOA XA?
U 1 1 5527E31C
P 4900 4850
F 0 "XA?" H 4950 5000 60  0000 C CNN
F 1 "XOA" H 4950 4700 60  0000 C CNN
F 2 "" H 4625 4850 60  0000 C CNN
F 3 "" H 4625 4850 60  0000 C CNN
	1    4900 4850
	1    0    0    -1  
$EndComp
Text Notes 4750 5200 0    60   ~ 0
OPAMP
$EndSCHEMATC
